<?xml version="1.0" encoding="UTF-8"?><svg xmlns="http://www.w3.org/2000/svg" xmlns:xlink="http://www.w3.org/1999/xlink" stroke-dasharray="none" shape-rendering="auto" font-family="'Dialog'" width="700" text-rendering="auto" fill-opacity="1" contentScriptType="text/ecmascript" color-interpolation="auto" color-rendering="auto" preserveAspectRatio="xMidYMid meet" font-size="12" viewBox="0 0 700 345" fill="black" stroke="black" image-rendering="auto" stroke-miterlimit="10" zoomAndPan="magnify" version="1.0" stroke-linecap="square" stroke-linejoin="miter" contentStyleType="text/css" font-style="normal" height="345" stroke-width="1" stroke-dashoffset="0" font-weight="normal" stroke-opacity="1">
<!--Generated by the Batik Graphics2D SVG Generator-->
<defs id="genericDefs"/>
<g>
<defs id="defs1">
<linearGradient x1="290" x2="290" y1="45" gradientUnits="userSpaceOnUse" y2="93" xlink:type="simple" xlink:actuate="onLoad" id="linearGradient1" xlink:show="other" spreadMethod="pad">
<stop stop-opacity="1" stop-color="white" offset="0%"/>
<stop stop-opacity="1" stop-color="white" offset="100%"/>
</linearGradient>
<linearGradient x1="10" x2="10" y1="45" gradientUnits="userSpaceOnUse" y2="93" xlink:type="simple" xlink:actuate="onLoad" id="linearGradient2" xlink:show="other" spreadMethod="pad">
<stop stop-opacity="1" stop-color="white" offset="0%"/>
<stop stop-opacity="1" stop-color="white" offset="100%"/>
</linearGradient>
<linearGradient x1="110" x2="110" y1="145" gradientUnits="userSpaceOnUse" y2="193" xlink:type="simple" xlink:actuate="onLoad" id="linearGradient3" xlink:show="other" spreadMethod="pad">
<stop stop-opacity="1" stop-color="white" offset="0%"/>
<stop stop-opacity="1" stop-color="white" offset="100%"/>
</linearGradient>
<linearGradient x1="110" x2="110" y1="265" gradientUnits="userSpaceOnUse" y2="326" xlink:type="simple" xlink:actuate="onLoad" id="linearGradient4" xlink:show="other" spreadMethod="pad">
<stop stop-opacity="1" stop-color="white" offset="0%"/>
<stop stop-opacity="1" stop-color="white" offset="100%"/>
</linearGradient>
<linearGradient x1="590" x2="590" y1="145" gradientUnits="userSpaceOnUse" y2="193" xlink:type="simple" xlink:actuate="onLoad" id="linearGradient5" xlink:show="other" spreadMethod="pad">
<stop stop-opacity="1" stop-color="white" offset="0%"/>
<stop stop-opacity="1" stop-color="white" offset="100%"/>
</linearGradient>
<linearGradient x1="350" x2="350" y1="145" gradientUnits="userSpaceOnUse" y2="193" xlink:type="simple" xlink:actuate="onLoad" id="linearGradient6" xlink:show="other" spreadMethod="pad">
<stop stop-opacity="1" stop-color="white" offset="0%"/>
<stop stop-opacity="1" stop-color="white" offset="100%"/>
</linearGradient>
<linearGradient x1="430" x2="430" y1="265" gradientUnits="userSpaceOnUse" y2="313" xlink:type="simple" xlink:actuate="onLoad" id="linearGradient7" xlink:show="other" spreadMethod="pad">
<stop stop-opacity="1" stop-color="white" offset="0%"/>
<stop stop-opacity="1" stop-color="white" offset="100%"/>
</linearGradient>
<linearGradient x1="590" x2="590" y1="265" gradientUnits="userSpaceOnUse" y2="313" xlink:type="simple" xlink:actuate="onLoad" id="linearGradient8" xlink:show="other" spreadMethod="pad">
<stop stop-opacity="1" stop-color="white" offset="0%"/>
<stop stop-opacity="1" stop-color="white" offset="100%"/>
</linearGradient>
<clipPath clipPathUnits="userSpaceOnUse" id="clipPath1">
<path d="M290 45 L290 92 L460 92 L460 45 Z"/>
</clipPath>
<clipPath clipPathUnits="userSpaceOnUse" id="clipPath2">
<path d="M301 47 L452 47 L452 63 L301 63 L301 47 Z"/>
</clipPath>
<clipPath clipPathUnits="userSpaceOnUse" id="clipPath3">
<path d="M290 62 L462 62 L462 94 L290 94 L290 62 Z"/>
</clipPath>
<clipPath clipPathUnits="userSpaceOnUse" id="clipPath4">
<path d="M289 44 L462 44 L462 94 L289 94 L289 44 Z"/>
</clipPath>
<clipPath clipPathUnits="userSpaceOnUse" id="clipPath5">
<path d="M10 45 L10 92 L129 92 L129 45 Z"/>
</clipPath>
<clipPath clipPathUnits="userSpaceOnUse" id="clipPath6">
<path d="M27 47 L115 47 L115 63 L27 63 L27 47 Z"/>
</clipPath>
<clipPath clipPathUnits="userSpaceOnUse" id="clipPath7">
<path d="M10 62 L131 62 L131 94 L10 94 L10 62 Z"/>
</clipPath>
<clipPath clipPathUnits="userSpaceOnUse" id="clipPath8">
<path d="M9 44 L131 44 L131 94 L9 94 L9 44 Z"/>
</clipPath>
<clipPath clipPathUnits="userSpaceOnUse" id="clipPath9">
<path d="M110 145 L110 192 L229 192 L229 145 Z"/>
</clipPath>
<clipPath clipPathUnits="userSpaceOnUse" id="clipPath10">
<path d="M122 147 L220 147 L220 163 L122 163 L122 147 Z"/>
</clipPath>
<clipPath clipPathUnits="userSpaceOnUse" id="clipPath11">
<path d="M110 162 L231 162 L231 194 L110 194 L110 162 Z"/>
</clipPath>
<clipPath clipPathUnits="userSpaceOnUse" id="clipPath12">
<path d="M109 144 L231 144 L231 194 L109 194 L109 144 Z"/>
</clipPath>
<clipPath clipPathUnits="userSpaceOnUse" id="clipPath13">
<path d="M110 265 L110 325 L277 325 L277 265 Z"/>
</clipPath>
<clipPath clipPathUnits="userSpaceOnUse" id="clipPath14">
<path d="M152 267 L237 267 L237 283 L152 283 L152 267 Z"/>
</clipPath>
<clipPath clipPathUnits="userSpaceOnUse" id="clipPath15">
<path d="M115 284 L273 284 L273 300 L115 300 L115 284 Z"/>
</clipPath>
<clipPath clipPathUnits="userSpaceOnUse" id="clipPath16">
<path d="M115 298 L275 298 L275 314 L115 314 L115 298 Z"/>
</clipPath>
<clipPath clipPathUnits="userSpaceOnUse" id="clipPath17">
<path d="M110 282 L279 282 L279 327 L110 327 L110 282 Z"/>
</clipPath>
<clipPath clipPathUnits="userSpaceOnUse" id="clipPath18">
<path d="M109 264 L279 264 L279 327 L109 327 L109 264 Z"/>
</clipPath>
<clipPath clipPathUnits="userSpaceOnUse" id="clipPath19">
<path d="M590 145 L590 192 L689 192 L689 145 Z"/>
</clipPath>
<clipPath clipPathUnits="userSpaceOnUse" id="clipPath20">
<path d="M612 147 L669 147 L669 163 L612 163 L612 147 Z"/>
</clipPath>
<clipPath clipPathUnits="userSpaceOnUse" id="clipPath21">
<path d="M590 162 L691 162 L691 194 L590 194 L590 162 Z"/>
</clipPath>
<clipPath clipPathUnits="userSpaceOnUse" id="clipPath22">
<path d="M589 144 L691 144 L691 194 L589 194 L589 144 Z"/>
</clipPath>
<clipPath clipPathUnits="userSpaceOnUse" id="clipPath23">
<path d="M350 145 L350 192 L470 192 L470 145 Z"/>
</clipPath>
<clipPath clipPathUnits="userSpaceOnUse" id="clipPath24">
<path d="M356 147 L467 147 L467 163 L356 163 L356 147 Z"/>
</clipPath>
<clipPath clipPathUnits="userSpaceOnUse" id="clipPath25">
<path d="M350 162 L472 162 L472 194 L350 194 L350 162 Z"/>
</clipPath>
<clipPath clipPathUnits="userSpaceOnUse" id="clipPath26">
<path d="M349 144 L472 144 L472 194 L349 194 L349 144 Z"/>
</clipPath>
<clipPath clipPathUnits="userSpaceOnUse" id="clipPath27">
<path d="M430 265 L430 312 L529 312 L529 265 Z"/>
</clipPath>
<clipPath clipPathUnits="userSpaceOnUse" id="clipPath28">
<path d="M440 267 L521 267 L521 283 L440 283 L440 267 Z"/>
</clipPath>
<clipPath clipPathUnits="userSpaceOnUse" id="clipPath29">
<path d="M430 282 L531 282 L531 314 L430 314 L430 282 Z"/>
</clipPath>
<clipPath clipPathUnits="userSpaceOnUse" id="clipPath30">
<path d="M429 264 L531 264 L531 314 L429 314 L429 264 Z"/>
</clipPath>
<clipPath clipPathUnits="userSpaceOnUse" id="clipPath31">
<path d="M590 265 L590 312 L689 312 L689 265 Z"/>
</clipPath>
<clipPath clipPathUnits="userSpaceOnUse" id="clipPath32">
<path d="M616 267 L666 267 L666 283 L616 283 L616 267 Z"/>
</clipPath>
<clipPath clipPathUnits="userSpaceOnUse" id="clipPath33">
<path d="M590 282 L691 282 L691 314 L590 314 L590 282 Z"/>
</clipPath>
<clipPath clipPathUnits="userSpaceOnUse" id="clipPath34">
<path d="M589 264 L691 264 L691 314 L589 314 L589 264 Z"/>
</clipPath>
<clipPath clipPathUnits="userSpaceOnUse" id="clipPath35">
<path d="M-1 -1 L701 -1 L701 346 L-1 346 L-1 -1 Z"/>
</clipPath>
<clipPath clipPathUnits="userSpaceOnUse" id="clipPath36">
<path d="M252 74 L260 74 L260 90 L252 90 L252 74 Z"/>
</clipPath>
<clipPath clipPathUnits="userSpaceOnUse" id="clipPath37">
<path d="M133 44 L231 44 L231 60 L133 60 L133 44 Z"/>
</clipPath>
<clipPath clipPathUnits="userSpaceOnUse" id="clipPath38">
<path d="M276 44 L288 44 L288 60 L276 60 L276 44 Z"/>
</clipPath>
<clipPath clipPathUnits="userSpaceOnUse" id="clipPath39">
<path d="M136 78 L146 78 L146 94 L136 94 L136 78 Z"/>
</clipPath>
<clipPath clipPathUnits="userSpaceOnUse" id="clipPath40">
<path d="M273 60 L292 60 L292 71 L273 71 L273 60 Z"/>
</clipPath>
<clipPath clipPathUnits="userSpaceOnUse" id="clipPath41">
<path d="M129 58 L150 58 L150 73 L129 73 L129 58 Z"/>
</clipPath>
<clipPath clipPathUnits="userSpaceOnUse" id="clipPath42">
<path d="M495 44 L573 44 L573 60 L495 60 L495 44 Z"/>
</clipPath>
<clipPath clipPathUnits="userSpaceOnUse" id="clipPath43">
<path d="M429 23 L437 23 L437 39 L429 39 L429 23 Z"/>
</clipPath>
<clipPath clipPathUnits="userSpaceOnUse" id="clipPath44">
<path d="M489 64 L499 64 L499 80 L489 80 L489 64 Z"/>
</clipPath>
<clipPath clipPathUnits="userSpaceOnUse" id="clipPath45">
<path d="M431 22 L443 22 L443 38 L431 38 L431 22 Z"/>
</clipPath>
<clipPath clipPathUnits="userSpaceOnUse" id="clipPath46">
<path d="M460 58 L481 58 L481 73 L460 73 L460 58 Z"/>
</clipPath>
<clipPath clipPathUnits="userSpaceOnUse" id="clipPath47">
<path d="M444 28 L455 28 L455 47 L444 47 L444 28 Z"/>
</clipPath>
<clipPath clipPathUnits="userSpaceOnUse" id="clipPath48">
<path d="M191 187 L199 187 L199 203 L191 203 L191 187 Z"/>
</clipPath>
<clipPath clipPathUnits="userSpaceOnUse" id="clipPath49">
<path d="M189 245 L225 245 L225 261 L189 261 L189 245 Z"/>
</clipPath>
<clipPath clipPathUnits="userSpaceOnUse" id="clipPath50">
<path d="M156 198 L168 198 L168 214 L156 214 L156 198 Z"/>
</clipPath>
<clipPath clipPathUnits="userSpaceOnUse" id="clipPath51">
<path d="M172 243 L182 243 L182 259 L172 259 L172 243 Z"/>
</clipPath>
<clipPath clipPathUnits="userSpaceOnUse" id="clipPath52">
<path d="M169 192 L180 192 L180 211 L169 211 L169 192 Z"/>
</clipPath>
<clipPath clipPathUnits="userSpaceOnUse" id="clipPath53">
<path d="M179 245 L194 245 L194 267 L179 267 L179 245 Z"/>
</clipPath>
<clipPath clipPathUnits="userSpaceOnUse" id="clipPath54">
<path d="M85 220 L143 220 L143 236 L85 236 L85 220 Z"/>
</clipPath>
<clipPath clipPathUnits="userSpaceOnUse" id="clipPath55">
<path d="M66 186 L74 186 L74 202 L66 202 L66 186 Z"/>
</clipPath>
<clipPath clipPathUnits="userSpaceOnUse" id="clipPath56">
<path d="M87 236 L112 236 L112 252 L87 252 L87 236 Z"/>
</clipPath>
<clipPath clipPathUnits="userSpaceOnUse" id="clipPath57">
<path d="M93 155 L105 155 L105 171 L93 171 L93 155 Z"/>
</clipPath>
<clipPath clipPathUnits="userSpaceOnUse" id="clipPath58">
<path d="M116 192 L131 192 L131 213 L116 213 L116 192 Z"/>
</clipPath>
<clipPath clipPathUnits="userSpaceOnUse" id="clipPath59">
<path d="M311 111 L319 111 L319 127 L311 127 L311 111 Z"/>
</clipPath>
<clipPath clipPathUnits="userSpaceOnUse" id="clipPath60">
<path d="M161 127 L214 127 L214 143 L161 143 L161 127 Z"/>
</clipPath>
<clipPath clipPathUnits="userSpaceOnUse" id="clipPath61">
<path d="M318 99 L330 99 L330 115 L318 115 L318 99 Z"/>
</clipPath>
<clipPath clipPathUnits="userSpaceOnUse" id="clipPath62">
<path d="M215 117 L225 117 L225 133 L215 133 L215 117 Z"/>
</clipPath>
<clipPath clipPathUnits="userSpaceOnUse" id="clipPath63">
<path d="M304 92 L321 92 L321 102 L304 102 L304 92 Z"/>
</clipPath>
<clipPath clipPathUnits="userSpaceOnUse" id="clipPath64">
<path d="M216 130 L238 130 L238 149 L216 149 L216 130 Z"/>
</clipPath>
<clipPath clipPathUnits="userSpaceOnUse" id="clipPath65">
<path d="M328 177 L336 177 L336 193 L328 193 L328 177 Z"/>
</clipPath>
<clipPath clipPathUnits="userSpaceOnUse" id="clipPath66">
<path d="M233 144 L286 144 L286 160 L233 160 L233 144 Z"/>
</clipPath>
<clipPath clipPathUnits="userSpaceOnUse" id="clipPath67">
<path d="M335 144 L347 144 L347 160 L335 160 L335 144 Z"/>
</clipPath>
<clipPath clipPathUnits="userSpaceOnUse" id="clipPath68">
<path d="M235 173 L247 173 L247 189 L235 189 L235 173 Z"/>
</clipPath>
<clipPath clipPathUnits="userSpaceOnUse" id="clipPath69">
<path d="M229 158 L250 158 L250 173 L229 173 L229 158 Z"/>
</clipPath>
<clipPath clipPathUnits="userSpaceOnUse" id="clipPath70">
<path d="M461 85 L469 85 L469 101 L461 101 L461 85 Z"/>
</clipPath>
<clipPath clipPathUnits="userSpaceOnUse" id="clipPath71">
<path d="M510 146 L572 146 L572 162 L510 162 L510 146 Z"/>
</clipPath>
<clipPath clipPathUnits="userSpaceOnUse" id="clipPath72">
<path d="M458 85 L470 85 L470 101 L458 101 L458 85 Z"/>
</clipPath>
<clipPath clipPathUnits="userSpaceOnUse" id="clipPath73">
<path d="M588 130 L598 130 L598 146 L588 146 L588 130 Z"/>
</clipPath>
<clipPath clipPathUnits="userSpaceOnUse" id="clipPath74">
<path d="M443 91 L461 91 L461 102 L443 102 L443 91 Z"/>
</clipPath>
<clipPath clipPathUnits="userSpaceOnUse" id="clipPath75">
<path d="M570 136 L592 136 L592 153 L570 153 L570 136 Z"/>
</clipPath>
<clipPath clipPathUnits="userSpaceOnUse" id="clipPath76">
<path d="M406 307 L414 307 L414 323 L406 323 L406 307 Z"/>
</clipPath>
<clipPath clipPathUnits="userSpaceOnUse" id="clipPath77">
<path d="M281 271 L362 271 L362 287 L281 287 L281 271 Z"/>
</clipPath>
<clipPath clipPathUnits="userSpaceOnUse" id="clipPath78">
<path d="M411 275 L423 275 L423 291 L411 291 L411 275 Z"/>
</clipPath>
<clipPath clipPathUnits="userSpaceOnUse" id="clipPath79">
<path d="M289 304 L301 304 L301 320 L289 320 L289 304 Z"/>
</clipPath>
<clipPath clipPathUnits="userSpaceOnUse" id="clipPath80">
<path d="M277 288 L298 288 L298 303 L277 303 L277 288 Z"/>
</clipPath>
<clipPath clipPathUnits="userSpaceOnUse" id="clipPath81">
<path d="M512 235 L520 235 L520 251 L512 251 L512 235 Z"/>
</clipPath>
<clipPath clipPathUnits="userSpaceOnUse" id="clipPath82">
<path d="M549 191 L586 191 L586 207 L549 207 L549 191 Z"/>
</clipPath>
<clipPath clipPathUnits="userSpaceOnUse" id="clipPath83">
<path d="M533 262 L545 262 L545 278 L533 278 L533 262 Z"/>
</clipPath>
<clipPath clipPathUnits="userSpaceOnUse" id="clipPath84">
<path d="M590 211 L602 211 L602 227 L590 227 L590 211 Z"/>
</clipPath>
<clipPath clipPathUnits="userSpaceOnUse" id="clipPath85">
<path d="M589 191 L611 191 L611 211 L589 211 L589 191 Z"/>
</clipPath>
<clipPath clipPathUnits="userSpaceOnUse" id="clipPath86">
<path d="M456 205 L464 205 L464 221 L456 221 L456 205 Z"/>
</clipPath>
<clipPath clipPathUnits="userSpaceOnUse" id="clipPath87">
<path d="M415 246 L451 246 L451 262 L415 262 L415 246 Z"/>
</clipPath>
<clipPath clipPathUnits="userSpaceOnUse" id="clipPath88">
<path d="M413 200 L425 200 L425 216 L413 216 L413 200 Z"/>
</clipPath>
<clipPath clipPathUnits="userSpaceOnUse" id="clipPath89">
<path d="M469 242 L479 242 L479 258 L469 258 L469 242 Z"/>
</clipPath>
<clipPath clipPathUnits="userSpaceOnUse" id="clipPath90">
<path d="M425 192 L436 192 L436 209 L425 209 L425 192 Z"/>
</clipPath>
<clipPath clipPathUnits="userSpaceOnUse" id="clipPath91">
<path d="M450 245 L469 245 L469 267 L450 267 L450 245 Z"/>
</clipPath>
<clipPath clipPathUnits="userSpaceOnUse" id="clipPath92">
<path d="M621 192 L640 192 L640 205 L621 205 L621 192 Z"/>
</clipPath>
<clipPath clipPathUnits="userSpaceOnUse" id="clipPath93">
<path d="M401 96 L409 96 L409 112 L401 112 L401 96 Z"/>
</clipPath>
<clipPath clipPathUnits="userSpaceOnUse" id="clipPath94">
<path d="M408 128 L477 128 L477 144 L408 144 L408 128 Z"/>
</clipPath>
<clipPath clipPathUnits="userSpaceOnUse" id="clipPath95">
<path d="M369 98 L381 98 L381 114 L369 114 L369 98 Z"/>
</clipPath>
<clipPath clipPathUnits="userSpaceOnUse" id="clipPath96">
<path d="M379 131 L389 131 L389 147 L379 147 L379 131 Z"/>
</clipPath>
<clipPath clipPathUnits="userSpaceOnUse" id="clipPath97">
<path d="M381 92 L391 92 L391 110 L381 110 L381 92 Z"/>
</clipPath>
<clipPath clipPathUnits="userSpaceOnUse" id="clipPath98">
<path d="M388 125 L405 125 L405 147 L388 147 L388 125 Z"/>
</clipPath>
<clipPath clipPathUnits="userSpaceOnUse" id="clipPath99">
<path d="M323 223 L381 223 L381 239 L323 239 L323 223 Z"/>
</clipPath>
<clipPath clipPathUnits="userSpaceOnUse" id="clipPath100">
<path d="M387 178 L395 178 L395 194 L387 194 L387 178 Z"/>
</clipPath>
<clipPath clipPathUnits="userSpaceOnUse" id="clipPath101">
<path d="M372 196 L397 196 L397 212 L372 212 L372 196 Z"/>
</clipPath>
<clipPath clipPathUnits="userSpaceOnUse" id="clipPath102">
<path d="M323 178 L335 178 L335 194 L323 194 L323 178 Z"/>
</clipPath>
<clipPath clipPathUnits="userSpaceOnUse" id="clipPath103">
<path d="M356 192 L371 192 L371 213 L356 213 L356 192 Z"/>
</clipPath>
</defs>
<g font-size="13" fill="url(#linearGradient1)" font-family="'Noto Sans'" stroke-linejoin="round" stroke="url(#linearGradient1)" stroke-width="0" stroke-miterlimit="0">
<rect x="290" y="45" clip-path="url(#clipPath1)" width="171" height="48" stroke="none"/>
</g>
<g stroke-miterlimit="0" stroke-width="0" stroke-linejoin="round">
<text xml:space="preserve" x="302" y="59" clip-path="url(#clipPath2)" stroke="none">InteractionDefinitionModule</text>
</g>
<g stroke-width="1.1" font-size="13" font-family="'Noto Sans'" stroke-linecap="butt">
<line clip-path="url(#clipPath3)" fill="none" x1="290" x2="461" y1="63" y2="63"/>
<rect x="290" y="45" clip-path="url(#clipPath4)" fill="none" width="170" rx="0" ry="0" height="47"/>
<rect x="10" y="45" clip-path="url(#clipPath5)" fill="url(#linearGradient2)" width="120" height="48" stroke="none"/>
<text x="28" font-size="12" y="59" clip-path="url(#clipPath6)" font-family="'Dialog'" stroke="none" xml:space="preserve">ContractModule</text>
<line clip-path="url(#clipPath7)" fill="none" x1="10" x2="130" y1="63" y2="63"/>
<rect x="10" y="45" clip-path="url(#clipPath8)" fill="none" width="119" rx="0" ry="0" height="47"/>
<rect x="110" y="145" clip-path="url(#clipPath9)" fill="url(#linearGradient3)" width="120" height="48" stroke="none"/>
<text x="123" font-size="12" y="159" clip-path="url(#clipPath10)" font-family="'Dialog'" stroke="none" xml:space="preserve">InteractionPattern</text>
<line clip-path="url(#clipPath11)" fill="none" x1="110" x2="230" y1="163" y2="163"/>
<rect x="110" y="145" clip-path="url(#clipPath12)" fill="none" width="119" rx="0" ry="0" height="47"/>
<rect x="110" y="265" clip-path="url(#clipPath13)" fill="url(#linearGradient4)" width="168" height="61" stroke="none"/>
<text x="153" font-size="12" y="279" clip-path="url(#clipPath14)" font-family="'Dialog'" stroke="none" xml:space="preserve">InteractionRole</text>
<text x="116" font-size="12" y="296" clip-path="url(#clipPath15)" font-family="'Dialog'" stroke="none" xml:space="preserve"> + lowerMultiplicity: ELong [1]</text>
<text x="116" font-size="12" y="310" clip-path="url(#clipPath16)" font-family="'Dialog'" stroke="none" xml:space="preserve"> + upperMultiplicity: ELong [1]</text>
<line clip-path="url(#clipPath17)" fill="none" x1="110" x2="278" y1="283" y2="283"/>
<rect x="110" y="265" clip-path="url(#clipPath18)" fill="none" width="167" rx="0" ry="0" height="60"/>
<rect x="590" y="145" clip-path="url(#clipPath19)" fill="url(#linearGradient5)" width="100" height="48" stroke="none"/>
<text x="613" font-size="12" y="159" clip-path="url(#clipPath20)" font-family="'Dialog'" font-style="italic" stroke="none" xml:space="preserve">IPortType</text>
<line clip-path="url(#clipPath21)" fill="none" x1="590" x2="690" y1="163" y2="163"/>
<rect x="590" y="145" clip-path="url(#clipPath22)" fill="none" width="99" rx="0" ry="0" height="47"/>
<rect x="350" y="145" clip-path="url(#clipPath23)" fill="url(#linearGradient6)" width="121" height="48" stroke="none"/>
<text x="357" font-size="12" y="159" clip-path="url(#clipPath24)" font-family="'Dialog'" stroke="none" xml:space="preserve">ConnectorDefinition</text>
<line clip-path="url(#clipPath25)" fill="none" x1="350" x2="471" y1="163" y2="163"/>
<rect x="350" y="145" clip-path="url(#clipPath26)" fill="none" width="120" rx="0" ry="0" height="47"/>
<rect x="430" y="265" clip-path="url(#clipPath27)" fill="url(#linearGradient7)" width="100" height="48" stroke="none"/>
<text x="441" font-size="12" y="279" clip-path="url(#clipPath28)" font-family="'Dialog'" stroke="none" xml:space="preserve">ConnectorPort</text>
<line clip-path="url(#clipPath29)" fill="none" x1="430" x2="530" y1="283" y2="283"/>
<rect x="430" y="265" clip-path="url(#clipPath30)" fill="none" width="99" rx="0" ry="0" height="47"/>
<rect x="590" y="265" clip-path="url(#clipPath31)" fill="url(#linearGradient8)" width="100" height="48" stroke="none"/>
<text x="617" font-size="12" y="279" clip-path="url(#clipPath32)" font-family="'Dialog'" stroke="none" xml:space="preserve">PortType</text>
<line clip-path="url(#clipPath33)" fill="none" x1="590" x2="690" y1="283" y2="283"/>
<rect x="590" y="265" clip-path="url(#clipPath34)" fill="none" width="99" rx="0" ry="0" height="47"/>
<line clip-path="url(#clipPath35)" fill="none" text-rendering="optimizeLegibility" x1="290" x2="130" y1="65" y2="65"/>
<text x="253" font-size="12" y="86" clip-path="url(#clipPath36)" text-rendering="optimizeLegibility" font-family="'Dialog'" stroke="none" xml:space="preserve">  </text>
<text x="134" font-size="12" y="56" clip-path="url(#clipPath37)" text-rendering="optimizeLegibility" font-family="'Dialog'" stroke="none" xml:space="preserve"> + contractModule</text>
<text x="277" font-size="12" y="56" clip-path="url(#clipPath38)" text-rendering="optimizeLegibility" font-family="'Dialog'" stroke="none" xml:space="preserve"> 1</text>
<text x="137" font-size="12" y="90" clip-path="url(#clipPath39)" text-rendering="optimizeLegibility" font-family="'Dialog'" stroke="none" xml:space="preserve"> *</text>
<polygon text-rendering="optimizeLegibility" clip-path="url(#clipPath40)" points=" 290 65 282 69 274 65 282 61" stroke="none"/>
<polygon fill="none" text-rendering="optimizeLegibility" clip-path="url(#clipPath40)" points=" 290 65 282 69 274 65 282 61"/>
<polygon text-rendering="optimizeLegibility" clip-path="url(#clipPath41)" points=" 130 64 132 62 134 62 136 64 136 65 148 59 136 65 148 71 136 65 136 66 134 68 132 68 130 66" stroke="none"/>
<polygon fill="none" text-rendering="optimizeLegibility" clip-path="url(#clipPath41)" points=" 130 64 132 62 134 62 136 64 136 65 148 59 136 65 148 71 136 65 136 66 134 68 132 68 130 66"/>
<line clip-path="url(#clipPath35)" fill="none" text-rendering="optimizeLegibility" x1="461" x2="490" y1="65" y2="65"/>
<line clip-path="url(#clipPath35)" fill="none" text-rendering="optimizeLegibility" x1="490" x2="490" y1="65" y2="25"/>
<line clip-path="url(#clipPath35)" fill="none" text-rendering="optimizeLegibility" x1="490" x2="450" y1="25" y2="25"/>
<line clip-path="url(#clipPath35)" fill="none" text-rendering="optimizeLegibility" x1="450" x2="448" y1="25" y2="45"/>
<text x="496" font-size="12" y="56" clip-path="url(#clipPath42)" text-rendering="optimizeLegibility" font-family="'Dialog'" stroke="none" xml:space="preserve"> + submodule</text>
<text x="430" font-size="12" y="35" clip-path="url(#clipPath43)" text-rendering="optimizeLegibility" font-family="'Dialog'" stroke="none" xml:space="preserve">  </text>
<text x="490" font-size="12" y="76" clip-path="url(#clipPath44)" text-rendering="optimizeLegibility" font-family="'Dialog'" stroke="none" xml:space="preserve"> *</text>
<text x="432" font-size="12" y="34" clip-path="url(#clipPath45)" text-rendering="optimizeLegibility" font-family="'Dialog'" stroke="none" xml:space="preserve"> 1</text>
<polygon text-rendering="optimizeLegibility" clip-path="url(#clipPath46)" points=" 461 64 463 62 465 62 467 64 467 65 479 59 467 65 479 71 467 65 467 66 465 68 463 68 461 66" stroke="none"/>
<polygon fill="none" text-rendering="optimizeLegibility" clip-path="url(#clipPath46)" points=" 461 64 463 62 465 62 467 64 467 65 479 59 467 65 479 71 467 65 467 66 465 68 463 68 461 66"/>
<polygon text-rendering="optimizeLegibility" clip-path="url(#clipPath47)" points=" 448 45 445 37 450 29 453 37" stroke="none"/>
<polygon fill="none" text-rendering="optimizeLegibility" clip-path="url(#clipPath47)" points=" 448 45 445 37 450 29 453 37"/>
<line clip-path="url(#clipPath35)" fill="none" text-rendering="optimizeLegibility" x1="172" x2="190" y1="193" y2="265"/>
<text x="192" font-size="12" y="199" clip-path="url(#clipPath48)" text-rendering="optimizeLegibility" font-family="'Dialog'" stroke="none" xml:space="preserve">  </text>
<text x="190" font-size="12" y="257" clip-path="url(#clipPath49)" text-rendering="optimizeLegibility" font-family="'Dialog'" stroke="none" xml:space="preserve"> + role</text>
<text x="157" font-size="12" y="210" clip-path="url(#clipPath50)" text-rendering="optimizeLegibility" font-family="'Dialog'" stroke="none" xml:space="preserve"> 1</text>
<text x="173" font-size="12" y="255" clip-path="url(#clipPath51)" text-rendering="optimizeLegibility" font-family="'Dialog'" stroke="none" xml:space="preserve"> *</text>
<polygon text-rendering="optimizeLegibility" clip-path="url(#clipPath52)" points=" 172 193 178 200 176 209 170 202" stroke="none"/>
<polygon fill="none" text-rendering="optimizeLegibility" clip-path="url(#clipPath52)" points=" 172 193 178 200 176 209 170 202"/>
<polygon text-rendering="optimizeLegibility" clip-path="url(#clipPath53)" points=" 189 265 187 264 186 262 188 259 189 259 180 249 189 259 191 246 189 259 190 259 192 260 192 262 191 265" stroke="none"/>
<polygon fill="none" text-rendering="optimizeLegibility" clip-path="url(#clipPath53)" points=" 189 265 187 264 186 262 188 259 189 259 180 249 189 259 191 246 189 259 190 259 192 260 192 262 191 265"/>
<line clip-path="url(#clipPath35)" fill="none" text-rendering="optimizeLegibility" x1="123" x2="123" y1="193" y2="215"/>
<line clip-path="url(#clipPath35)" fill="none" text-rendering="optimizeLegibility" x1="123" x2="90" y1="215" y2="215"/>
<line clip-path="url(#clipPath35)" fill="none" text-rendering="optimizeLegibility" x1="90" x2="90" y1="215" y2="175"/>
<line clip-path="url(#clipPath35)" fill="none" text-rendering="optimizeLegibility" x1="90" x2="110" y1="175" y2="175"/>
<text x="86" font-size="12" y="232" clip-path="url(#clipPath54)" text-rendering="optimizeLegibility" font-family="'Dialog'" stroke="none" xml:space="preserve"> + extends</text>
<text x="67" font-size="12" y="198" clip-path="url(#clipPath55)" text-rendering="optimizeLegibility" font-family="'Dialog'" stroke="none" xml:space="preserve">  </text>
<text x="88" font-size="12" y="248" clip-path="url(#clipPath56)" text-rendering="optimizeLegibility" font-family="'Dialog'" stroke="none" xml:space="preserve"> 0..1</text>
<text x="94" font-size="12" y="167" clip-path="url(#clipPath57)" text-rendering="optimizeLegibility" font-family="'Dialog'" stroke="none" xml:space="preserve"> 1</text>
<polygon text-rendering="optimizeLegibility" clip-path="url(#clipPath58)" points=" 124 193 126 195 126 197 124 199 123 199 129 211 123 199 117 211 123 199 122 199 120 197 120 195 122 193" stroke="none"/>
<polygon fill="none" text-rendering="optimizeLegibility" clip-path="url(#clipPath58)" points=" 124 193 126 195 126 197 124 199 123 199 129 211 123 199 117 211 123 199 122 199 120 197 120 195 122 193"/>
<line clip-path="url(#clipPath35)" fill="none" text-rendering="optimizeLegibility" x1="319" x2="217" y1="93" y2="145"/>
<text x="312" font-size="12" y="123" clip-path="url(#clipPath59)" text-rendering="optimizeLegibility" font-family="'Dialog'" stroke="none" xml:space="preserve">  </text>
<text x="162" font-size="12" y="139" clip-path="url(#clipPath60)" text-rendering="optimizeLegibility" font-family="'Dialog'" stroke="none" xml:space="preserve"> + pattern</text>
<text x="319" font-size="12" y="111" clip-path="url(#clipPath61)" text-rendering="optimizeLegibility" font-family="'Dialog'" stroke="none" xml:space="preserve"> 1</text>
<text x="216" font-size="12" y="129" clip-path="url(#clipPath62)" text-rendering="optimizeLegibility" font-family="'Dialog'" stroke="none" xml:space="preserve"> *</text>
<polygon text-rendering="optimizeLegibility" clip-path="url(#clipPath63)" points=" 319 93 314 100 305 100 310 93" stroke="none"/>
<polygon fill="none" text-rendering="optimizeLegibility" clip-path="url(#clipPath63)" points=" 319 93 314 100 305 100 310 93"/>
<polygon text-rendering="optimizeLegibility" clip-path="url(#clipPath64)" points=" 217 144 217 141 219 141 222 141 222 142 230 131 222 142 236 142 222 142 223 143 222 146 220 147 217 146" stroke="none"/>
<polygon fill="none" text-rendering="optimizeLegibility" clip-path="url(#clipPath64)" points=" 217 144 217 141 219 141 222 141 222 142 230 131 222 142 236 142 222 142 223 143 222 146 220 147 217 146"/>
<line clip-path="url(#clipPath35)" fill="none" text-rendering="optimizeLegibility" x1="350" x2="230" y1="165" y2="165"/>
<text x="329" font-size="12" y="189" clip-path="url(#clipPath65)" text-rendering="optimizeLegibility" font-family="'Dialog'" stroke="none" xml:space="preserve">  </text>
<text x="234" font-size="12" y="156" clip-path="url(#clipPath66)" text-rendering="optimizeLegibility" font-family="'Dialog'" stroke="none" xml:space="preserve"> + pattern</text>
<text x="336" font-size="12" y="156" clip-path="url(#clipPath67)" text-rendering="optimizeLegibility" font-family="'Dialog'" stroke="none" xml:space="preserve"> 1</text>
<text x="236" font-size="12" y="185" clip-path="url(#clipPath68)" text-rendering="optimizeLegibility" font-family="'Dialog'" stroke="none" xml:space="preserve"> 1</text>
<polygon text-rendering="optimizeLegibility" clip-path="url(#clipPath69)" points=" 230 164 232 162 234 162 236 164 236 165 248 159 236 165 248 171 236 165 236 166 234 168 232 168 230 166" stroke="none"/>
<polygon fill="none" text-rendering="optimizeLegibility" clip-path="url(#clipPath69)" points=" 230 164 232 162 234 162 236 164 236 165 248 159 236 165 248 171 236 165 236 166 234 168 232 168 230 166"/>
<line clip-path="url(#clipPath35)" fill="none" text-rendering="optimizeLegibility" x1="444" x2="590" y1="93" y2="149"/>
<text x="462" font-size="12" y="97" clip-path="url(#clipPath70)" text-rendering="optimizeLegibility" font-family="'Dialog'" stroke="none" xml:space="preserve">  </text>
<text x="511" font-size="12" y="158" clip-path="url(#clipPath71)" text-rendering="optimizeLegibility" font-family="'Dialog'" stroke="none" xml:space="preserve"> + portType</text>
<text x="459" font-size="12" y="97" clip-path="url(#clipPath72)" text-rendering="optimizeLegibility" font-family="'Dialog'" stroke="none" xml:space="preserve"> 1</text>
<text x="589" font-size="12" y="142" clip-path="url(#clipPath73)" text-rendering="optimizeLegibility" font-family="'Dialog'" stroke="none" xml:space="preserve"> *</text>
<polygon text-rendering="optimizeLegibility" clip-path="url(#clipPath74)" points=" 444 93 453 92 459 99 450 100" stroke="none"/>
<polygon fill="none" text-rendering="optimizeLegibility" clip-path="url(#clipPath74)" points=" 444 93 453 92 459 99 450 100"/>
<polygon text-rendering="optimizeLegibility" clip-path="url(#clipPath75)" points=" 590 150 587 151 585 150 584 148 584 147 571 148 584 147 575 137 584 147 585 146 587 145 589 145 590 148" stroke="none"/>
<polygon fill="none" text-rendering="optimizeLegibility" clip-path="url(#clipPath75)" points=" 590 150 587 151 585 150 584 148 584 147 571 148 584 147 575 137 584 147 585 146 587 145 589 145 590 148"/>
<line clip-path="url(#clipPath35)" fill="none" text-rendering="optimizeLegibility" x1="430" x2="278" y1="295" y2="295"/>
<text x="407" font-size="12" y="319" clip-path="url(#clipPath76)" text-rendering="optimizeLegibility" font-family="'Dialog'" stroke="none" xml:space="preserve">  </text>
<text x="282" font-size="12" y="283" clip-path="url(#clipPath77)" text-rendering="optimizeLegibility" font-family="'Dialog'" stroke="none" xml:space="preserve"> + implements</text>
<text x="412" font-size="12" y="287" clip-path="url(#clipPath78)" text-rendering="optimizeLegibility" font-family="'Dialog'" stroke="none" xml:space="preserve"> 1</text>
<text x="290" font-size="12" y="316" clip-path="url(#clipPath79)" text-rendering="optimizeLegibility" font-family="'Dialog'" stroke="none" xml:space="preserve"> 1</text>
<polygon text-rendering="optimizeLegibility" clip-path="url(#clipPath80)" points=" 278 294 280 292 282 292 284 294 284 295 296 289 284 295 296 301 284 295 284 296 282 298 280 298 278 296" stroke="none"/>
<polygon fill="none" text-rendering="optimizeLegibility" clip-path="url(#clipPath80)" points=" 278 294 280 292 282 292 284 294 284 295 296 289 284 295 296 301 284 295 284 296 282 298 280 298 278 296"/>
<line clip-path="url(#clipPath35)" fill="none" text-rendering="optimizeLegibility" x1="512" x2="608" y1="265" y2="193"/>
<text x="513" font-size="12" y="247" clip-path="url(#clipPath81)" text-rendering="optimizeLegibility" font-family="'Dialog'" stroke="none" xml:space="preserve">  </text>
<text x="550" font-size="12" y="203" clip-path="url(#clipPath82)" text-rendering="optimizeLegibility" font-family="'Dialog'" stroke="none" xml:space="preserve"> + type</text>
<text x="534" font-size="12" y="274" clip-path="url(#clipPath83)" text-rendering="optimizeLegibility" font-family="'Dialog'" stroke="none" xml:space="preserve"> 1</text>
<text x="591" font-size="12" y="223" clip-path="url(#clipPath84)" text-rendering="optimizeLegibility" font-family="'Dialog'" stroke="none" xml:space="preserve"> 1</text>
<polygon text-rendering="optimizeLegibility" clip-path="url(#clipPath85)" points=" 609 194 608 197 607 198 604 197 603 197 597 209 603 197 590 199 603 197 603 196 603 193 605 192 607 192" stroke="none"/>
<polygon fill="none" text-rendering="optimizeLegibility" clip-path="url(#clipPath85)" points=" 609 194 608 197 607 198 604 197 603 197 597 209 603 197 590 199 603 197 603 196 603 193 605 192 607 192"/>
<line clip-path="url(#clipPath35)" fill="none" text-rendering="optimizeLegibility" x1="426" x2="465" y1="193" y2="265"/>
<text x="457" font-size="12" y="217" clip-path="url(#clipPath86)" text-rendering="optimizeLegibility" font-family="'Dialog'" stroke="none" xml:space="preserve">  </text>
<text x="416" font-size="12" y="258" clip-path="url(#clipPath87)" text-rendering="optimizeLegibility" font-family="'Dialog'" stroke="none" xml:space="preserve"> + port</text>
<text x="414" font-size="12" y="212" clip-path="url(#clipPath88)" text-rendering="optimizeLegibility" font-family="'Dialog'" stroke="none" xml:space="preserve"> 1</text>
<text x="470" font-size="12" y="254" clip-path="url(#clipPath89)" text-rendering="optimizeLegibility" font-family="'Dialog'" stroke="none" xml:space="preserve"> *</text>
<polygon text-rendering="optimizeLegibility" clip-path="url(#clipPath90)" points=" 426 193 433 198 434 207 426 202" stroke="none"/>
<polygon fill="none" text-rendering="optimizeLegibility" clip-path="url(#clipPath90)" points=" 426 193 433 198 434 207 426 202"/>
<polygon text-rendering="optimizeLegibility" clip-path="url(#clipPath91)" points=" 464 265 461 265 460 263 461 260 462 260 451 252 462 260 462 246 462 260 463 259 466 260 467 262 466 265" stroke="none"/>
<polygon fill="none" text-rendering="optimizeLegibility" clip-path="url(#clipPath91)" points=" 464 265 461 265 460 263 461 260 462 260 451 252 462 260 462 246 462 260 463 259 466 260 467 262 466 265"/>
<line clip-path="url(#clipPath35)" fill="none" text-rendering="optimizeLegibility" x1="630" x2="630" y1="265" y2="193"/>
</g>
<g fill="white" text-rendering="optimizeLegibility" stroke-width="1.1" stroke-linecap="butt" stroke="white">
<polygon clip-path="url(#clipPath92)" points=" 630 193 638 203 622 203" stroke="none"/>
<polygon fill="none" clip-path="url(#clipPath92)" points=" 630 193 638 203 622 203" stroke="black"/>
<line clip-path="url(#clipPath35)" fill="none" x1="383" x2="401" y1="93" y2="145" stroke="black"/>
<text x="402" y="108" clip-path="url(#clipPath93)" fill="black" stroke="none" xml:space="preserve">  </text>
<text x="409" y="140" clip-path="url(#clipPath94)" fill="black" stroke="none" xml:space="preserve"> + connector</text>
<text x="370" y="110" clip-path="url(#clipPath95)" fill="black" stroke="none" xml:space="preserve"> 1</text>
<text x="380" y="143" clip-path="url(#clipPath96)" fill="black" stroke="none" xml:space="preserve"> *</text>
<polygon fill="black" clip-path="url(#clipPath97)" points=" 383 93 389 99 388 108 382 102" stroke="none"/>
<polygon fill="none" clip-path="url(#clipPath97)" points=" 383 93 389 99 388 108 382 102" stroke="black"/>
<polygon fill="black" clip-path="url(#clipPath98)" points=" 400 145 398 144 397 142 398 140 399 139 389 130 399 139 401 126 399 139 400 139 403 140 403 142 402 145" stroke="none"/>
<polygon fill="none" clip-path="url(#clipPath98)" points=" 400 145 398 144 397 142 398 140 399 139 389 130 399 139 401 126 399 139 400 139 403 140 403 142 402 145" stroke="black"/>
<line clip-path="url(#clipPath35)" fill="none" x1="363" x2="363" y1="193" y2="216" stroke="black"/>
<line clip-path="url(#clipPath35)" fill="none" x1="363" x2="334" y1="216" y2="216" stroke="black"/>
<line clip-path="url(#clipPath35)" fill="none" x1="334" x2="334" y1="216" y2="185" stroke="black"/>
<line clip-path="url(#clipPath35)" fill="none" x1="334" x2="350" y1="185" y2="185" stroke="black"/>
<text x="324" y="235" clip-path="url(#clipPath99)" fill="black" stroke="none" xml:space="preserve"> + extends</text>
<text x="388" y="190" clip-path="url(#clipPath100)" fill="black" stroke="none" xml:space="preserve">  </text>
<text x="373" y="208" clip-path="url(#clipPath101)" fill="black" stroke="none" xml:space="preserve"> 0..1</text>
<text x="324" y="190" clip-path="url(#clipPath102)" fill="black" stroke="none" xml:space="preserve"> 1</text>
<polygon fill="black" clip-path="url(#clipPath103)" points=" 364 193 366 195 366 197 364 199 363 199 369 211 363 199 357 211 363 199 362 199 360 197 360 195 362 193" stroke="none"/>
<polygon fill="none" clip-path="url(#clipPath103)" points=" 364 193 366 195 366 197 364 199 363 199 369 211 363 199 357 211 363 199 362 199 360 197 360 195 362 193" stroke="black"/>
</g>
</g>
</svg>
